<?xml version="1.0" encoding="UTF-8"?>
<svg width="127px" height="32px" viewBox="0 0 127 32" version="1.1" xmlns="http://www.w3.org/2000/svg" xmlns:xlink="http://www.w3.org/1999/xlink">
    <!-- Generator: Sketch 48.2 (47327) - http://www.bohemiancoding.com/sketch -->
    <title>challenges-logo</title>
    <desc>Created with Sketch.</desc>
    <defs></defs>
    <g id="Homepage-V1" stroke="none" stroke-width="1" fill="none" fill-rule="evenodd" transform="translate(-663.000000, -3398.000000)">
        <g id="partners" transform="translate(179.000000, 3382.000000)" fill-rule="nonzero">
            <g id="partners-grayscale" transform="translate(1.000000, 0.000000)">
                <g id="challenges-logo" transform="translate(483.000000, 16.000000)">
                    <path d="M16.9680672,22.0235294 C16.9411765,20.4907563 16.5647059,20.1680672 15.8386555,20.4907563 C14.4672269,21.0823529 12.9613445,23.0184874 9.33109244,23.0184874 C4.32941176,22.9915966 0,18.1512605 0,11.589916 C0,5.51260504 4.32941176,0.645378151 9.30420168,0.645378151 C12.907563,0.645378151 14.2252101,2.82352941 15.3008403,2.82352941 C16.1344538,2.82352941 16.4033613,2.60840336 16.3764706,1.7210084 C16.3764706,1.37142857 16.8605042,1.42521008 16.8605042,1.7210084 C16.6991597,3.73781513 16.6722689,5.62016807 16.8605042,7.93277311 C16.887395,8.36302521 16.4033613,8.36302521 16.4033613,7.93277311 C16.4033613,4.51764706 13.5529412,1.12941176 9.30420168,1.12941176 C4.0605042,1.12941176 3.33445378,7.6907563 3.33445378,11.6168067 C3.33445378,15.9462185 4.03361345,22.5344538 9.25042017,22.5344538 C13.5798319,22.5344538 16.4302521,19.4957983 16.9411765,15.4352941 C16.994958,15.0319328 17.4252101,15.0588235 17.3983193,15.4352941 C17.2638655,17.6403361 17.2638655,19.6840336 17.3983193,22.0504202 C17.4521008,22.3462185 16.994958,22.3462185 16.9680672,22.0235294" id="Shape" fill="#808080"></path>
                    <path d="M27.8588235,22.7226891 C27.4016807,22.7226891 27.4016807,22.1579832 27.8588235,22.2655462 C28.4773109,22.3193277 28.9613445,22.292437 29.4991597,22.2386555 C29.8756303,22.2117647 29.8756303,22.1042017 29.8756303,21.9697479 L29.8756303,13.0957983 C29.8756303,11.4016807 29.2571429,10.8907563 28.3159664,10.8907563 C25.8689076,10.9176471 24.9008403,13.0420168 23.8521008,14.3865546 L23.8521008,21.8890756 C23.8521008,22.0773109 23.9327731,22.1848739 24.2016807,22.2386555 C24.7932773,22.292437 25.2235294,22.292437 25.707563,22.2386555 C26.1915966,22.1848739 26.1647059,22.7226891 25.707563,22.7226891 C23.5831933,22.6689076 21.6470588,22.6689076 19.4689076,22.7226891 C19.0117647,22.7226891 19.0117647,22.1579832 19.4689076,22.2386555 C20.0605042,22.292437 20.5176471,22.292437 21.0285714,22.2386555 C21.3781513,22.2117647 21.3781513,22.1042017 21.3781513,21.9697479 L21.3781513,2.20504202 C21.3781513,1.9092437 21.297479,1.69411765 20.8941176,1.64033613 C20.4907563,1.61344538 20.1680672,1.61344538 19.7647059,1.64033613 C19.1731092,1.66722689 19.1731092,1.12941176 19.7647059,1.15630252 C20.3831933,1.18319328 20.9747899,1.21008403 21.512605,1.18319328 C22.0235294,1.15630252 22.8302521,0.941176471 23.394958,0.484033613 C23.8252101,0.107563025 23.8789916,0.0537815126 23.8789916,0.51092437 L23.8789916,13.4722689 C23.8789916,13.6605042 23.9058824,13.5260504 24.0134454,13.4184874 C25.0621849,11.912605 26.4605042,10.3798319 28.8537815,10.4067227 C32.0268908,10.4336134 32.3495798,12.0470588 32.3495798,13.8487395 L32.3495798,21.8890756 C32.3495798,22.0773109 32.4302521,22.1848739 32.6991597,22.2386555 C33.2907563,22.292437 33.8554622,22.292437 34.3932773,22.2386555 C34.8504202,22.1848739 34.8235294,22.7226891 34.3932773,22.7226891 C32.2151261,22.6689076 30.0638655,22.6689076 27.8588235,22.7226891" id="Shape" fill="#808080"></path>
                    <path d="M42.8369748,16.5915966 C42.8369748,16.4302521 42.7563025,16.3764706 42.3529412,16.4033613 C40.9008403,16.4840336 38.4,16.8605042 38.4,19.4689076 C38.4,21.1092437 38.6689076,22.292437 40.5512605,22.292437 C41.6537815,22.292437 42.6487395,20.9210084 42.8638655,20.5983193 L42.8638655,16.5915966 L42.8369748,16.5915966 Z M45.4991597,23.0184874 C44.0739496,23.0184874 43.1327731,22.292437 42.9176471,21.2168067 C42.9176471,21.1630252 42.8638655,21.1630252 42.8369748,21.2168067 C42.2453782,22.2386555 41.0621849,23.0184874 39.4487395,23.0184874 C37.1361345,23.0184874 35.7647059,21.9159664 35.7647059,19.9260504 C35.7647059,16.994958 39.8789916,16.0268908 42.2991597,15.9731092 C42.7563025,15.9731092 42.8638655,15.9193277 42.8638655,15.7848739 L42.8638655,12.3159664 C42.8638655,11.2403361 42.2991597,10.7294118 41.3848739,10.7294118 C40.0672269,10.7294118 38.5344538,11.0252101 38.5344538,11.9663866 C38.5344538,12.6386555 39.5294118,11.9932773 39.5294118,13.3109244 C39.5294118,13.9831933 38.9109244,14.4403361 38.1579832,14.5478992 C37.4319328,14.6285714 36.8134454,13.8756303 36.8672269,12.907563 C36.9478992,11.589916 38.9915966,10.3260504 41.5731092,10.2722689 C43.697479,10.2453782 45.3915966,11.5361345 45.3915966,13.5529412 L45.3915966,21.1092437 C45.3915966,21.7008403 45.4722689,22.3731092 46.2789916,22.3731092 C46.6823529,22.3731092 47.005042,22.292437 47.1932773,21.9966387 C47.4621849,21.6201681 47.8117647,21.9428571 47.4890756,22.2655462 C46.9512605,22.6689076 46.3865546,23.0184874 45.4991597,23.0184874 Z" id="Shape" fill="#808080"></path>
                    <path d="M48.0806723,22.7495798 C47.5966387,22.7495798 47.5966387,22.1848739 48.0806723,22.2655462 C48.6722689,22.3193277 49.102521,22.3193277 49.6403361,22.2655462 C49.989916,22.2386555 49.989916,22.1310924 49.989916,21.9966387 L49.989916,2.1512605 C49.989916,1.85546218 49.8554622,1.64033613 49.4789916,1.58655462 C49.0487395,1.55966387 48.7529412,1.55966387 48.3226891,1.58655462 C47.7579832,1.61344538 47.7579832,1.07563025 48.3226891,1.10252101 C48.9680672,1.12941176 49.5596639,1.15630252 50.0705882,1.12941176 C50.5815126,1.10252101 51.3882353,0.887394958 51.9529412,0.430252101 C52.410084,0.0537815126 52.4638655,-1.94289029e-16 52.4638655,0.349579832 L52.4638655,21.9428571 C52.4638655,22.1310924 52.5983193,22.2386555 52.8134454,22.292437 C53.405042,22.3462185 53.8621849,22.3462185 54.3462185,22.292437 C54.8302521,22.2386555 54.8033613,22.7764706 54.3462185,22.7764706 C52.194958,22.6957983 50.2588235,22.6957983 48.0806723,22.7495798" id="Shape" fill="#808080"></path>
                    <path d="M55.5294118,22.7495798 C55.0453782,22.7495798 55.0453782,22.1848739 55.5294118,22.2655462 C56.1210084,22.3193277 56.5512605,22.3193277 57.0890756,22.2655462 C57.4386555,22.2386555 57.4386555,22.1310924 57.4386555,21.9966387 L57.4386555,2.1512605 C57.4386555,1.85546218 57.3042017,1.64033613 56.9277311,1.58655462 C56.497479,1.55966387 56.2016807,1.55966387 55.7714286,1.58655462 C55.2067227,1.61344538 55.2067227,1.07563025 55.7714286,1.10252101 C56.4168067,1.12941176 57.0084034,1.15630252 57.5193277,1.12941176 C58.0302521,1.10252101 58.8369748,0.887394958 59.4016807,0.430252101 C59.8588235,0.0537815126 59.912605,-1.94289029e-16 59.912605,0.349579832 L59.912605,21.9428571 C59.912605,22.1310924 60.0470588,22.2386555 60.2621849,22.292437 C60.8537815,22.3462185 61.3109244,22.3462185 61.794958,22.292437 C62.2789916,22.2386555 62.2521008,22.7764706 61.794958,22.7764706 C59.6436975,22.6957983 57.707563,22.6957983 55.5294118,22.7495798" id="Shape" fill="#808080"></path>
                    <path d="M71.2336134,14.6554622 C71.2336134,12.8 70.9915966,10.6218487 68.7865546,10.702521 C66.7159664,10.7563025 66.1243697,12.8268908 66.1243697,14.6554622 L66.1243697,15.2470588 C66.1243697,15.3815126 66.1512605,15.4890756 66.312605,15.4890756 L70.8840336,15.4890756 C71.1529412,15.4890756 71.2605042,15.1932773 71.2605042,15.0857143 L71.2605042,14.6554622 L71.2336134,14.6554622 Z M69.1361345,23.0184874 C65.6672269,23.0184874 63.2470588,20.410084 63.2470588,16.5915966 C63.2470588,13.794958 65.5596639,10.2722689 68.7865546,10.1915966 C73.5731092,10.0571429 74.0571429,14.3596639 74.0571429,15.5697479 C74.0571429,15.7579832 73.8151261,15.9193277 73.492437,15.9193277 L66.2319328,15.9193277 C66.1512605,15.9193277 66.0705882,15.9731092 66.0705882,16.0806723 L66.0705882,18.205042 C66.0705882,20.2756303 66.312605,22.5613445 69.1092437,22.5613445 C71.5563025,22.5613445 73.5193277,20.9747899 74.0840336,18.7697479 C74.1109244,18.4739496 74.594958,18.4201681 74.5411765,18.7697479 C73.8420168,21.2436975 71.8521008,23.0184874 69.1361345,23.0184874 Z" id="Shape" fill="#808080"></path>
                    <path d="M83.7109244,22.7495798 C83.2268908,22.7495798 83.2268908,22.1848739 83.7109244,22.2655462 C84.302521,22.3193277 84.7327731,22.3193277 85.2705882,22.2655462 C85.6201681,22.2386555 85.6201681,22.1310924 85.6201681,21.9966387 L85.6201681,13.1495798 C85.6201681,11.6436975 85.1630252,10.8638655 84.194958,10.8638655 C82.097479,10.8638655 80.4571429,12.7193277 79.9193277,13.7411765 L79.9193277,21.9159664 C79.9193277,22.1042017 79.9731092,22.2117647 80.2151261,22.2655462 C80.8067227,22.3193277 81.2369748,22.3193277 81.7210084,22.2655462 C82.205042,22.2117647 82.1781513,22.7495798 81.7210084,22.7495798 C79.5966387,22.6957983 77.6605042,22.6957983 75.4823529,22.7495798 C75.0252101,22.7495798 75.0252101,22.1848739 75.4823529,22.2655462 C76.0739496,22.3193277 76.5310924,22.3193277 77.0420168,22.2655462 C77.3915966,22.2386555 77.3915966,22.1310924 77.3915966,21.9966387 L77.3915966,12.1277311 C77.3915966,11.7781513 77.2571429,11.5630252 76.8806723,11.5361345 C76.4773109,11.5092437 76.1546218,11.5092437 75.7512605,11.5361345 C75.1596639,11.5630252 75.1596639,11.0252101 75.7512605,11.0521008 C76.3697479,11.0789916 76.8,11.0789916 77.3109244,11.0521008 C77.8756303,11.0252101 78.6285714,10.7831933 79.2201681,10.3798319 C79.6235294,10.1109244 79.6773109,10.0840336 79.7310924,10.4605042 C79.892437,11.3747899 79.9193277,12.2621849 79.892437,13.2571429 L79.9731092,12.9613445 C80.7529412,11.7512605 82.4201681,10.3798319 84.302521,10.3798319 C87.4756303,10.3798319 88.0941176,12.0739496 88.0941176,13.8756303 L88.0941176,21.9428571 C88.0941176,22.1310924 88.1747899,22.2117647 88.389916,22.2386555 C89.0084034,22.292437 89.4386555,22.292437 89.9226891,22.2386555 C90.4067227,22.1848739 90.3798319,22.7226891 89.9226891,22.7226891 C87.8252101,22.6957983 85.8890756,22.6957983 83.7109244,22.7495798" id="Shape" fill="#808080"></path>
                    <path d="M97.210084,10.9714286 C94.6823529,11.0521008 94.789916,13.6067227 94.8436975,15.3008403 C94.897479,17.3176471 95.005042,19.4957983 97.5058824,19.4151261 C100.033613,19.3344538 99.9260504,17.3445378 99.8722689,15.112605 C99.7915966,12.5848739 99.7109244,10.8638655 97.210084,10.9714286 Z M100.329412,24.4436975 C98.6352941,24.3630252 97.1294118,24.2823529 95.3815126,24.4436975 C93.794958,24.605042 92.7193277,25.8957983 92.7193277,27.912605 C92.7193277,30.4941176 94.8436975,31.4890756 97.1294118,31.4890756 C100.141176,31.4890756 103.314286,29.1495798 103.47563,26.3798319 C103.610084,24.8201681 101.835294,24.5243697 100.329412,24.4436975 Z M103.663866,12.9882353 C103.072269,12.9882353 102.642017,12.5310924 102.642017,12.0470588 C102.642017,11.3747899 102.830252,11.1865546 103.018487,10.9983193 C102.4,11.0252101 101.67395,11.5630252 101.243697,12.1546218 C101.915966,12.8806723 102.480672,14.1176471 102.480672,15.3277311 C102.480672,17.9361345 99.7647059,19.9529412 97.3714286,19.9529412 C96.0537815,19.9529412 95.4084034,19.5226891 95.0588235,19.3613445 C93.5798319,19.307563 92.3428571,19.6571429 92.2890756,20.8403361 C92.2621849,21.6201681 92.907563,22.0504202 93.6067227,22.0773109 C96.0268908,22.2117647 98.1781513,22.1579832 100.490756,22.0773109 C102.561345,21.9966387 103.878992,23.3142857 103.932773,26.0033613 C103.986555,29.5260504 100.517647,32 96.9680672,32 C94.2521008,32 91.2941176,30.9781513 91.2941176,28.0739496 C91.2941176,26.3798319 92.8,24.8470588 94.2521008,24.5512605 L94.2521008,24.4705882 C92.6117647,24.4705882 91.805042,23.3142857 91.8588235,21.6470588 C91.912605,19.7915966 92.8,18.9848739 94.6016807,19.0655462 L94.6016807,19.0117647 C93.2302521,18.1243697 92.2890756,17.102521 92.2890756,15.4084034 C92.2890756,12.6117647 94.6554622,10.4605042 97.3983193,10.4605042 C98.8504202,10.4605042 100.141176,10.9176471 101.001681,11.8319328 C101.566387,11.1865546 102.319328,10.4605042 103.341176,10.4605042 C104.228571,10.4605042 104.90084,10.9714286 104.90084,11.912605 C104.87395,12.6655462 104.282353,12.9882353 103.663866,12.9882353 Z" id="Shape" fill="#808080"></path>
                    <path d="M113.317647,14.6554622 C113.317647,12.8 113.07563,10.6218487 110.870588,10.702521 C108.8,10.7563025 108.208403,12.8268908 108.208403,14.6554622 L108.208403,15.2470588 C108.208403,15.3815126 108.235294,15.4890756 108.396639,15.4890756 L112.968067,15.4890756 C113.236975,15.4890756 113.344538,15.1932773 113.344538,15.0857143 L113.344538,14.6554622 L113.317647,14.6554622 Z M111.220168,23.0184874 C107.751261,23.0184874 105.331092,20.410084 105.331092,16.5915966 C105.331092,13.794958 107.643697,10.2722689 110.870588,10.1915966 C115.657143,10.0571429 116.141176,14.3596639 116.141176,15.5697479 C116.141176,15.7579832 115.89916,15.9193277 115.576471,15.9193277 L108.315966,15.9193277 C108.235294,15.9193277 108.154622,15.9731092 108.154622,16.0806723 L108.154622,18.205042 C108.154622,20.2756303 108.396639,22.5613445 111.193277,22.5613445 C113.640336,22.5613445 115.630252,20.9747899 116.168067,18.7697479 C116.194958,18.4739496 116.678992,18.4201681 116.62521,18.7697479 C115.92605,21.2436975 113.936134,23.0184874 111.220168,23.0184874 Z" id="Shape" fill="#808080"></path>
                    <path d="M125.257143,9.62689076 C124.584874,9.86890756 124.10084,9.43865546 123.912605,8.92773109 C123.697479,8.28235294 123.966387,7.85210084 124.154622,7.50252101 C124.10084,7.2605042 123.939496,7.07226891 123.240336,7.07226891 C122.379832,7.07226891 121.546218,7.50252101 121.546218,9.08907563 C121.546218,11.1865546 124.692437,11.2134454 124.692437,14.4134454 C124.692437,15.9462185 123.02521,17.6941176 120.954622,17.7478992 C119.09916,17.8016807 118.131092,16.6991597 117.835294,15.7848739 C117.566387,15.0588235 117.808403,14.1714286 118.507563,13.902521 C119.152941,13.6605042 119.744538,14.1176471 119.932773,14.6016807 C120.309244,15.7579832 119.206723,15.8386555 119.421849,16.5109244 C119.529412,16.8067227 120.416807,17.2369748 121.196639,17.0487395 C121.976471,16.8605042 123.02521,16.5378151 123.02521,15.2470588 C123.02521,13.1495798 120.147899,12.6386555 120.147899,10.0302521 C120.147899,8.68571429 121.196639,6.42689076 123.347899,6.42689076 C124.907563,6.42689076 125.579832,6.93781513 125.983193,8.06722689 C126.278992,8.79327731 125.87563,9.38487395 125.257143,9.62689076" id="Shape" fill="#CCCCCC"></path>
                </g>
            </g>
        </g>
    </g>
</svg>