<?xml version="1.0" encoding="UTF-8"?>
<svg width="90px" height="32px" viewBox="0 0 90 32" version="1.1" xmlns="http://www.w3.org/2000/svg" xmlns:xlink="http://www.w3.org/1999/xlink">
    <!-- Generator: Sketch 48.2 (47327) - http://www.bohemiancoding.com/sketch -->
    <title>metro-1</title>
    <desc>Created with Sketch.</desc>
    <defs></defs>
    <g id="Homepage-V1" stroke="none" stroke-width="1" fill="none" fill-rule="evenodd" transform="translate(-431.000000, -3398.000000)">
        <g id="partners" transform="translate(179.000000, 3382.000000)" fill-rule="nonzero">
            <g id="partners-grayscale" transform="translate(1.000000, 0.000000)">
                <g id="metro-1" transform="translate(251.000000, 16.000000)">
                    <polygon id="Shape" fill="#808080" points="0.420298507 31.8433433 89.7604776 31.8433433 89.7604776 0.0687761194 0.420298507 0.0687761194"></polygon>
                    <path d="M25.6955224,25.0345075 L25.6955224,13.5145075 C25.6955224,11.8982687 24.6294925,10.9010149 22.7037612,10.9010149 C20.8124179,10.9010149 19.712,12.070209 19.712,13.5488955 L19.712,25.0345075 L16.6858507,25.0345075 L16.6858507,13.5145075 C16.6858507,11.8982687 15.688597,10.9010149 13.7284776,10.9010149 C11.8371343,10.9010149 10.7023284,12.070209 10.7023284,13.5488955 L10.7023284,25.0345075 L7.74495522,25.0345075 L7.74495522,8.59701493 L10.3928358,8.59701493 L10.496,10.1444776 C11.4932537,8.94089552 12.5592836,8.25313433 14.7257313,8.25313433 C16.5139104,8.25313433 17.958209,9.216 18.6803582,10.4195821 C19.6432239,9.18161194 21.1562985,8.25313433 23.6666269,8.25313433 C26.5896119,8.25313433 28.6528955,10.350806 28.6528955,13.239403 L28.6528955,25.0345075 L25.6955224,25.0345075 Z M44.505791,15.2339104 L42.3049552,17.5379104 L34.5676418,17.5379104 C34.6364179,19.8762985 36.1494925,22.7648955 39.4158806,22.7648955 C41.2040597,22.7648955 42.5795821,22.2146866 43.8175522,21.1486567 L43.1641791,24.3811343 C42.2357015,24.9657313 40.9289552,25.4127761 39.0032239,25.4127761 C34.9110448,25.4127761 31.4722388,21.9739701 31.4722388,16.8501493 C31.4722388,11.4168358 35.014209,8.25313433 38.4530149,8.25313433 C42.3388657,8.25313433 44.5397015,11.3824478 44.5397015,14.4429851 C44.5401791,14.6493134 44.5401791,15.0275821 44.505791,15.2339104 Z M38.5566567,10.8322388 C36.8028657,10.8322388 35.0834627,12.7235821 34.705194,15.0619701 L41.4796418,15.0619701 C41.5484179,14.9244179 41.5484179,14.6493134 41.5484179,14.5117612 C41.5484179,12.7923582 40.3792239,10.8322388 38.5566567,10.8322388 Z M56.1633433,11.0385672 L51.6585075,11.0385672 L51.6585075,20.5984478 C51.6585075,21.870806 52.5530746,22.6617313 53.7566567,22.6617313 C54.3751642,22.6617313 54.8909851,22.5580896 55.3041194,22.3522388 L54.8226866,25.0345075 C54.4783284,25.1720597 54.0317612,25.2408358 53.3779104,25.2408358 C50.7648955,25.2408358 48.7016119,23.590209 48.7016119,20.5640597 L48.7016119,11.0385672 L45.9505672,11.0385672 L45.9505672,8.59701493 L48.7016119,8.59701493 L48.7016119,5.50208955 L51.6585075,3.92023881 L51.6585075,8.59701493 L56.5764776,8.59701493 L56.1633433,11.0385672 Z M66.7892537,11.0041791 C64.4508657,11.0041791 61.8378507,12.5860299 61.8378507,16.678209 L61.8378507,25.0345075 L58.8117015,25.0345075 L58.8117015,8.59701493 L61.6654328,8.59701493 L61.7690746,11.0729552 C62.5256119,9.18161194 64.4174328,8.39068657 66.617791,8.39068657 L67.0992239,11.0041791 L66.7892537,11.0041791 Z M75.7650149,25.6191045 C70.7443582,25.6191045 66.7892537,21.6644776 66.7892537,16.678209 C66.7892537,11.6575522 70.7443582,7.70292537 75.7650149,7.70292537 C80.750806,7.70292537 84.7054328,11.6575522 84.7054328,16.678209 C84.7054328,21.664 80.750806,25.6191045 75.7650149,25.6191045 Z M78.2404776,9.3879403 C78.6875224,10.0413134 79.1006567,10.8322388 79.4440597,11.6231642 C79.9598806,11.4168358 80.4413134,11.1417313 80.8544478,10.8666269 C80.0905526,10.2042031 79.2017619,9.7014266 78.2404776,9.3879403 Z M81.576597,11.5887761 C81.0607761,11.9326567 80.4413134,12.2421493 79.7540299,12.5516418 C80.2354627,13.824 80.5105672,15.0963582 80.614209,16.1623881 L83.3996418,16.1623881 C83.2955224,14.408597 82.6416716,12.7923582 81.576597,11.5887761 Z M76.8300896,9.07844776 C76.6419651,9.0137673 76.4448693,8.97895724 76.2459701,8.97528358 L76.2459701,12.5172537 C77.0182326,12.4428176 77.7796045,12.2813144 78.5155821,12.0358209 C78.0862776,10.9801843 77.5195554,9.98581085 76.8300896,9.07844776 Z M78.8589851,12.8955224 C78.0279107,13.2498222 77.1459936,13.4703418 76.2459701,13.5488955 L76.2459701,16.1623881 L79.5816119,16.1623881 C79.5128358,15.0619701 79.272597,13.9959403 78.8589851,12.8955224 Z M75.249194,8.97528358 C75.0767761,8.97528358 74.8704478,9.00967164 74.6641194,9.07844776 C73.9753132,9.98607907 73.4089389,10.9804056 72.9795821,12.0358209 C73.7017313,12.2765373 74.5270448,12.4484776 75.249194,12.5172537 L75.249194,8.97528358 Z M80.6137313,17.1596418 C80.5444776,18.1912836 80.2693731,19.4980299 79.7535522,20.7703881 C80.379427,21.0555109 80.9879991,21.3771802 81.5761194,21.7337313 C82.641194,20.5296716 83.2955224,18.9482985 83.3986866,17.1601194 L80.6137313,17.1601194 L80.6137313,17.1596418 Z M70.6407164,10.8666269 C71.0528955,11.1417313 71.5343284,11.4168358 72.0501493,11.6231642 C72.3945075,10.8322388 72.8066866,10.0413134 73.2890746,9.3879403 C72.3138069,9.69303101 71.4121491,10.1964634 70.6407164,10.8666269 Z M76.2464478,17.1596418 L76.2464478,19.7731343 C77.0722388,19.8423881 77.9658507,20.0826269 78.8594627,20.4265075 C79.272597,19.3260896 79.5133134,18.1912836 79.5825672,17.1596418 L76.2464478,17.1596418 Z M75.249194,13.5488955 C74.3488792,13.4702427 73.4666629,13.249729 72.6352239,12.8955224 C72.2230448,13.9959403 71.9823284,15.0619701 71.9130746,16.1623881 L75.2487164,16.1623881 L75.2487164,13.5488955 L75.249194,13.5488955 Z M79.4096716,21.664 C79.1011343,22.489791 78.7223881,23.2458507 78.2409552,23.9336119 C79.2038209,23.624597 80.0983881,23.1431642 80.8549254,22.4549254 C80.3970165,22.14988 79.913443,21.885241 79.4096716,21.664 Z M69.9534328,11.5887761 C68.8525373,12.7923582 68.1996418,14.408597 68.096,16.1623881 L70.8814328,16.1623881 C70.9850746,15.0963582 71.2601791,13.824 71.7416119,12.5516418 C71.0533731,12.2421493 70.4348657,11.9326567 69.9534328,11.5887761 Z M76.2464478,20.8047761 L76.2464478,24.3467463 C76.4179104,24.3467463 76.6242388,24.3123582 76.8305672,24.2779701 C77.5060669,23.3489943 78.0716682,22.3448877 78.5160597,21.2857313 C77.7595224,21.0450149 77.0029851,20.8735522 76.2464478,20.8047761 Z M75.249194,17.1596418 L71.9135522,17.1596418 C71.982806,18.1912836 72.2230448,19.3260896 72.6357015,20.4265075 C73.5302687,20.0826269 74.4238806,19.8419104 75.2496716,19.7731343 L75.2496716,17.1596418 L75.249194,17.1596418 Z M75.249194,20.8047761 C74.5270448,20.8740299 73.7705075,21.0454925 72.9795821,21.286209 C73.4243133,22.3450069 73.9895527,23.34904 74.6641194,24.2784478 C74.8704478,24.3123582 75.0762985,24.3472239 75.249194,24.3472239 L75.249194,20.8047761 Z M72.0850149,21.664 C71.569194,21.905194 71.0533731,22.1798209 70.641194,22.4549254 C71.3977313,23.1426866 72.2913433,23.6241194 73.2895522,23.9336119 C72.793342,23.2312628 72.388575,22.4685932 72.0850149,21.664 Z M70.8814328,17.1596418 L68.096,17.1596418 C68.1996418,18.9478209 68.8525373,20.5296716 69.9534328,21.7332537 C70.5254448,21.3693747 71.1230689,21.0474174 71.7416119,20.7699104 C71.225791,19.4975522 70.9506866,18.1912836 70.8814328,17.1596418 Z M83.880597,6.18985075 C83.432597,6.18985075 83.054806,5.84597015 83.054806,5.39892537 C83.054806,4.91749254 83.432597,4.57361194 83.880597,4.57361194 C84.3276418,4.57361194 84.7054328,4.91749254 84.7054328,5.39892537 C84.7054328,5.84597015 84.3276418,6.18985075 83.880597,6.18985075 Z M83.880597,4.71116418 C83.5018507,4.71116418 83.1923582,4.98626866 83.1923582,5.39892537 C83.1923582,5.77719403 83.5018507,6.05229851 83.880597,6.05229851 C84.2583881,6.05229851 84.5678806,5.77719403 84.5678806,5.39892537 C84.5678806,4.98579104 84.2583881,4.71116418 83.880597,4.71116418 Z M83.880597,5.02065672 L83.7425672,5.02065672 L83.7425672,5.33014925 L83.880597,5.33014925 C83.9832836,5.33014925 84.0520597,5.26137313 84.0520597,5.19259701 C84.0520597,5.08943284 83.9832836,5.02065672 83.880597,5.02065672 Z M84.1557015,5.88035821 L83.880597,5.46770149 L83.7425672,5.46770149 L83.7425672,5.88035821 L83.6054925,5.88035821 L83.6054925,4.88310448 L83.880597,4.88310448 C84.0520597,4.88310448 84.1891343,5.02065672 84.1891343,5.19259701 C84.1891343,5.29576119 84.1208358,5.39892537 84.0520597,5.43331343 L84.2927761,5.77719403 L84.1557015,5.88035821 Z" id="Shape" fill="#FFFFFF"></path>
                </g>
            </g>
        </g>
    </g>
</svg>